2017-10-10 15:22:14	admin	http://processwire.demomycms.co.uk/processwire/setup/template/removeFields	Deleted field "gallery" data in 0 row(s) from 0 page(s). [page-by-page]
2017-10-10 17:01:28	admin	http://processwire.demomycms.co.uk/processwire/blog/	Updating schema version of 'blog_comments' from  to 6
2017-10-10 17:01:45	admin	http://processwire.demomycms.co.uk/processwire/page/sort/	Updated sort for 4 pages
2017-10-12 10:42:02	admin	http://processwire.demomycms.co.uk/processwire/setup/template/removeFields	Deleted field "topbanner" data in 0 row(s) from 0 page(s). [page-by-page]
2018-01-02 20:45:06	admin	http://cms2018.demomycms.co.uk/processwire/setup/field/edit?id=135	Added tags to DB schema for 'media_manager_audio'
2018-01-02 20:45:19	admin	http://cms2018.demomycms.co.uk/processwire/setup/field/edit?id=136	Added tags to DB schema for 'media_manager_document'
2018-01-02 20:45:39	admin	http://cms2018.demomycms.co.uk/processwire/setup/field/edit?id=137	Added tags to DB schema for 'media_manager_image'
2018-01-02 20:46:10	admin	http://cms2018.demomycms.co.uk/processwire/setup/field/edit?id=138	Added tags to DB schema for 'media_manager_video'
2018-01-02 20:57:54	admin	http://cms2018.demomycms.co.uk/processwire/setup/template/removeFields	Deleted field "banner_old" data in 4 row(s) from 2 page(s). [page-by-page]
2018-01-03 02:56:30	admin	http://cms2018.demomycms.co.uk/processwire/module/	Creating table: process_forgot_password
