2017-10-09 10:48:14	guest	http://processwire.demomycms.co.uk/processwire/login/	Error: Failed login for 'admin' - Invalid password
2017-10-09 10:48:23	admin	http://processwire.demomycms.co.uk/processwire/login/	Successful login for 'admin'
2017-10-09 10:50:45	admin	http://processwire.demomycms.co.uk/processwire/login/	Successful login for 'admin'
2017-10-09 13:58:07	admin	http://processwire.demomycms.co.uk/processwire/login/	Successful login for 'admin'
2017-10-09 17:40:06	admin	http://processwire.demomycms.co.uk/processwire/login/	Successful login for 'admin'
2017-10-10 12:00:39	admin	http://processwire.demomycms.co.uk/processwire/login/	Successful login for 'admin'
2017-10-10 13:36:37	admin	http://processwire.demomycms.co.uk/processwire/login/	Successful login for 'admin'
2017-10-10 20:12:59	admin	http://processwire.demomycms.co.uk/processwire/login/	Successful login for 'admin'
2017-10-11 08:37:01	guest	http://processwire.demomycms.co.uk/processwire/login/	Error: Failed login for 'admin' - Invalid password
2017-10-11 08:37:04	guest	http://processwire.demomycms.co.uk/processwire/login/	Error: Failed login for 'admin' - Invalid password
2017-10-11 08:37:18	admin	http://processwire.demomycms.co.uk/processwire/login/	Successful login for 'admin'
2017-10-11 12:19:10	admin	http://processwire.demomycms.co.uk/processwire/login/	Successful login for 'admin'
2017-10-11 15:14:39	admin	http://processwire.demomycms.co.uk/processwire/login/	Successful login for 'admin'
2017-10-12 10:06:58	guest	http://processwire.demomycms.co.uk/processwire/login/	Error: Failed login for 'admin' - Invalid password
2017-10-12 10:07:03	guest	http://processwire.demomycms.co.uk/processwire/login/	Error: Failed login for 'admin' - Invalid password
2017-10-12 10:07:21	admin	http://processwire.demomycms.co.uk/processwire/login/	Successful login for 'admin'
2017-11-28 11:49:54	guest	http://processwire.demomycms.co.uk/processwire/login/	Error: Failed login for 'fluiadmin' - Unknown user: fluiadmin
2017-11-28 11:50:05	guest	http://processwire.demomycms.co.uk/processwire/login/	Error: Failed login for 'fluidadmin' - Unknown user: fluidadmin
2017-11-28 11:50:13	guest	http://processwire.demomycms.co.uk/processwire/login/	Error: Failed login for 'fluidadmin' - Unknown user: fluidadmin
2017-11-28 11:50:23	guest	http://processwire.demomycms.co.uk/processwire/login/	Error: Failed login for 'admin' - Invalid password
2017-11-28 11:50:33	guest	http://processwire.demomycms.co.uk/processwire/login/	Error: Failed login for 'fluidadmin' - Unknown user: fluidadmin
2017-11-28 11:50:45	guest	http://processwire.demomycms.co.uk/processwire/login/	Error: Failed login for 'fluidadmin' - Unknown user: fluidadmin
2017-11-28 11:50:51	guest	http://processwire.demomycms.co.uk/processwire/login/	Error: Failed login for 'fluidadmin' - User is not allowed to login
2017-11-28 12:02:27	guest	http://processwire.demomycms.co.uk/processwire/login/	Error: Failed login for 'admin' - Invalid password
2017-11-28 12:02:37	guest	http://processwire.demomycms.co.uk/processwire/login/	Error: Failed login for 'admin' - Invalid password
2017-11-28 12:03:46	admin	http://processwire.demomycms.co.uk/processwire/login/	Successful login for 'admin'
2017-11-28 13:36:39	guest	http://processwire.demomycms.co.uk/processwire/login/	Error: Failed login for 'admin' - Invalid password
2017-11-28 13:36:49	admin	http://processwire.demomycms.co.uk/processwire/login/	Successful login for 'admin'
2017-11-28 13:46:51	admin	http://processwire.demomycms.co.uk/processwire/login/	Successful login for 'admin'
2017-11-28 13:47:14	admin	http://processwire.demomycms.co.uk/processwire/login/	Successful login for 'admin'
2017-11-28 13:47:40	admin	http://processwire.demomycms.co.uk/processwire/login/	Successful login for 'admin'
2017-11-29 11:48:52	admin	http://processwire.demomycms.co.uk/processwire/login/	Successful login for 'admin'
2017-11-29 13:15:11	admin	http://processwire.demomycms.co.uk/processwire/login/	Successful login for 'admin'
2017-11-29 16:42:22	admin	http://processwire.demomycms.co.uk/processwire/login/	Successful login for 'admin'
2017-12-07 12:00:11	guest	http://processwire.demomycms.co.uk/processwire/login/	Error: Failed login for 'fluidadmin' - Unknown user: fluidadmin
2017-12-07 12:55:44	admin	http://processwire.demomycms.co.uk/processwire/login/	Successful login for 'admin'
2017-12-07 12:58:41	admin	http://cms2018.demomycms.co.uk/processwire/login/logout/	Logout for 'admin'
2017-12-07 12:58:51	admin	http://cms2018.demomycms.co.uk/processwire/login/	Successful login for 'admin'
2017-12-08 10:40:54	admin	http://cms2018.demomycms.co.uk/processwire/login/	Successful login for 'admin'
2017-12-08 12:02:08	admin	http://cms2018.demomycms.co.uk/processwire/login/?id=1	Successful login for 'admin'
2017-12-11 16:14:29	admin	http://cms2018.demomycms.co.uk/processwire/login/	Successful login for 'admin'
2017-12-12 09:27:33	admin	http://cms2018.demomycms.co.uk/processwire/login/	Successful login for 'admin'
2017-12-12 13:01:24	admin	http://cms2018.demomycms.co.uk/processwire/login/?id=1	Successful login for 'admin'
2017-12-12 15:31:10	admin	http://cms2018.demomycms.co.uk/processwire/login/?id=1	Successful login for 'admin'
2017-12-12 15:52:47	admin	http://cms2018.demomycms.co.uk/processwire/login/logout/	Logout for 'admin'
2017-12-12 15:52:54	admin	http://cms2018.demomycms.co.uk/processwire/login/	Successful login for 'admin'
2017-12-13 16:42:04	guest	http://cms2018.demomycms.co.uk/processwire/login/	Error: Failed login for 'admin' - Invalid password
2017-12-13 16:42:15	admin	http://cms2018.demomycms.co.uk/processwire/login/	Successful login for 'admin'
2017-12-19 16:46:29	admin	http://cms2018.demomycms.co.uk/processwire/login/	Successful login for 'admin'
2017-12-19 16:51:26	admin	http://cms2018.demomycms.co.uk/processwire/login/logout/	Logout for 'admin'
2017-12-19 16:55:36	admin	http://cms2018.demomycms.co.uk/processwire/login/	Successful login for 'admin'
2017-12-20 09:03:03	admin	http://cms2018.demomycms.co.uk/processwire/login/	Successful login for 'admin'
2017-12-20 10:26:37	admin	http://cms2018.demomycms.co.uk/processwire/login/	Successful login for 'admin'
2017-12-20 12:49:14	admin	http://cms2018.demomycms.co.uk/processwire/login/saveForm/	Successful login for 'admin'
2018-01-02 20:25:29	guest	http://cms2018.demomycms.co.uk/processwire/login/	Error: Failed login for 'admin' - Invalid password
2018-01-02 20:25:42	guest	http://cms2018.demomycms.co.uk/processwire/login/	Error: Failed login for 'admin' - Invalid password
2018-01-02 20:25:51	admin	http://cms2018.demomycms.co.uk/processwire/login/	Successful login for 'admin'
2018-01-03 02:38:33	guest	http://cms2018.demomycms.co.uk/processwire/login/	Error: Failed login for 'admin' - Invalid password
2018-01-03 02:38:43	admin	http://cms2018.demomycms.co.uk/processwire/login/	Successful login for 'admin'
2018-05-04 09:36:16	admin	http://cms2018.demomycms.co.uk/processwire/login/	Successful login for 'admin'
