2017-10-09 09:04:23	Update #8: Completed!
2017-10-09 09:04:23	Update #9: Initializing update
2017-10-09 09:04:23	Update #9: Added: Pages > Recent
2017-10-09 09:04:23	Update #9: Completed!
2017-10-09 09:05:17	Update #10: Initializing update
2017-10-09 09:05:18	Update #10: Installed ProcessLogger and added: Setup > Logs
2017-10-09 09:05:18	Update #10: Installed InputfieldIcon
2017-10-09 09:05:18	Update #10: Completed!
2017-10-09 09:05:46	Update #11: Initializing update
2017-10-09 09:05:46	Update #11: Completed!
2017-10-09 09:05:52	Update #12: Initializing update
2017-10-09 09:05:52	Update #12: Added 'published' column to pages table
2017-10-09 09:05:52	Update #12: Populated values to 'published' for 43 pages
2017-10-09 09:05:52	Update #12: Completed!
2017-10-09 09:05:52	Update #13: Initializing update
2017-10-09 09:05:52	Update #13: Completed!
2017-10-09 10:06:36	Update #14: Initializing update
2017-10-09 10:06:36	Update #14: Completed!
2017-10-09 10:47:49	Update #15: Initializing update
2017-10-09 10:47:49	Update #15: Completed!
2017-10-09 10:47:49	Update #16: Initializing update
2017-10-09 10:47:49	Update #16: Completed!
